Dashboard – Krystal’s M10 Website
…
Rows: 130 Columns: 12
── Column specification ────────────────────────────────────────────────────────
Delimiter: ","
chr  (1): condition
dbl (11): trust_1, trust_2, trust_3, trust_4, trust_5, trust_6, trust_7, tru...

ℹ Use `spec()` to retrieve the full column specification for this data.
ℹ Specify the column types or set `show_col_types = FALSE` to quiet this message.

trust_clean

# A tibble: 130 × 12
   condition trust_1 trust_2 trust_3 trust_4 trust_5 trust_6 trust_7 trust_8
   <chr>       <dbl>   <dbl>   <dbl>   <dbl>   <dbl>   <dbl>   <dbl>   <dbl>
 1 control         3       3       3       3       3       3       3       3
 2 ai              5       5       5       5       5       5       5       5
 3 control        NA       2       3       4       5       4       3       2
 4 ai              5       5       5       5       5       5       5       5
 5 control         2       2       3      NA       4       3       2       2
 6 ai             NA       2       3       5       2       4       3      NA
 7 control        NA      NA      NA       2       2      NA      NA      NA
 8 control         5       5       5       5       5      NA      NA      NA
 9 control         4       5       5       4       3       3       4       5
10 ai              3       2       4       5       3       2       4       3
# ℹ 120 more rows
# ℹ 3 more variables: trust_9 <dbl>, trust_10 <dbl>, trust_score_avg <dbl>
…
